Bayesian Modal Regression Analysis of 2003 United States Crime Data
…
Summary of Bayesian Analysis

One can summarize the Bayesian analysis using the summary
function.

print(summary(TPSC_model), n = 7)
#> # A tibble: 113 × 10
#>   variable        mean  median     sd    mad        q5     q95  rhat ess_bulk
#>   <chr>          <dbl>   <dbl>  <dbl>  <dbl>     <dbl>   <dbl> <dbl>    <dbl>
#> 1 w             0.283   0.283  0.119  0.125   0.0895    0.479  1.00      407.
#> 2 delta         1.85    1.72   0.635  0.547   1.09      3.08   1.00      736.
#> 3 sigma         1.18    1.17   0.255  0.262   0.775     1.60   1.00      779.
#> 4 (Intercept)   1.05    1.26   2.69   2.65   -3.70      5.07   1.00      704.
#> 5 college      -0.196  -0.201  0.0827 0.0836 -0.322    -0.0506 0.999     701.
#> 6 poverty       0.248   0.258  0.140  0.141  -0.000294  0.460  1.01      627.
#> 7 metropolitan  0.0634  0.0622 0.0150 0.0143  0.0407    0.0905 1.00      656.
#> # ℹ 106 more rows
#> # ℹ 1 more variable: ess_tail <dbl>
…
The summary of posterior predictive distribution can be assessed
using the following command. Here ystar[1] represents the
posterior prediction of the first observation in the dataset, and so
on.

summary(posterior::subset_draws(TPSC_model, variable = "ystar"))
#> # A tibble: 51 × 10
#>    variable    mean median       sd   mad     q5   q95  rhat ess_bulk ess_tail
#>    <chr>      <dbl>  <dbl>    <dbl> <dbl>  <dbl> <dbl> <dbl>    <dbl>    <dbl>
#>  1 ystar[1]    7.17   6.22     7.40  2.05  3.20  14.0  1.00     1857.    1834.
#>  2 ystar[2]    2.37   1.28    10.4   2.09 -1.68   9.20 1.00     1919.    1888.
#>  3 ystar[3]    6.36   6.03    23.4   1.87  3.09  13.1  1.00     1922.    1873.
#>  4 ystar[4]    6.13   5.56     5.77  2.22  2.18  12.6  1.00     1714.    1780.
#>  5 ystar[5]    7.07   6.25    40.8   2.07  3.19  13.8  0.999    1893.    1792.
#>  6 ystar[6]   21.6    2.65   806.    2.04 -0.356  9.84 1.00     1869.    1813.
#>  7 ystar[7]    6.77   3.76    72.8   1.87  0.864 11.6  1.00     1347.    1600.
#>  8 ystar[8]    5.87   4.87     7.00  1.94  2.10  12.3  1.00     2015.    1881.
#>  9 ystar[9]  242.     5.41 10536.    2.67  1.35  13.3  1.00     1479.    1555.
#> 10 ystar[10]   7.94   6.41    14.5   1.87  3.72  13.8  1.00     1844.    1823.
#> # ℹ 41 more rows
…
